src/build/module_debouncer_tb.vcd
$date
	Sat May 10 16:00:42 2025
$end
$version
	Icarus Verilog
$end
$timescale
	1ns
$end
$scope module module_debouncer_tb $end
$var wire 1 ! tecla $end
$var wire 1 " stop $end
$var reg 1 # btn $end
$var reg 1 $ clk $end
$var reg 1 % rst $end
$scope module dut $end
$var wire 1 # btn $end
$var wire 1 $ clk $end
$var wire 1 & n3 $end
$var wire 1 % rst $end
$var wire 1 " stop $end
$var wire 1 ! tecla $end
$var wire 1 ' n4 $end
$var wire 1 ( n2 $end
$var wire 1 ) n1 $end
$scope module cont $end
$var wire 1 $ clk $end
$var wire 1 & in $end
$var wire 1 % rst $end
$var reg 9 * count [8:0] $end
$var reg 1 ' flg $end
$upscope $end
$scope module dff1 $end
$var wire 1 $ clk $end
$var wire 1 # d $end
$var wire 1 % rst $end
$var reg 1 ) q $end
$upscope $end
$scope module dff2 $end
$var wire 1 $ clk $end
$var wire 1 ) d $end
$var wire 1 % rst $end
$var reg 1 ( q $end
$upscope $end
$scope module endff1 $end
$var wire 1 $ clk $end
$var wire 1 ( d $end
$var wire 1 ' en $end
$var wire 1 ! q $end
$var wire 1 % rst $end
$var reg 1 + q_reg $end
$var reg 1 , q_reg_d $end
$upscope $end
$upscope $end
$upscope $end
$enddefinitions $end
$comment Show the parameter values. $end
$dumpall
$end
#0
$dumpvars
0,
0+
b0 *
0)
0(
0'
1&
1%
0$
x#
0"
0!
$end
#1
0#
0%
#10
b1 *
1$
#11
1#
#20
0$
#30
0&
1)
b10 *
1$
#31
0#
#40
0$
#41
1#
#50
1&
b0 *
1(
1$
#60
0$
#70
b1 *
1$
#71
0#
#80
0$
#81
1#
#90
b10 *
1$
#100
0$
#110
b11 *
1$
#120
0$
#121
0#
#130
0&
b100 *
0)
1$
#131
1#
#140
0$
#150
1)
0(
b0 *
1$
#160
0$
#161
0#
#170
1(
0)
1$
#171
1#
#180
0$
#190
1)
0(
1$
#200
0$
#210
1&
1(
1$
#220
0$
#230
b1 *
1$
#240
0$
#250
b10 *
1$
#260
0$
#270
b11 *
1$
#280
0$
#290
b100 *
1$
#300
0$
#310
1'
b0 *
1$
#320
0$
#330
1+
0'
b1 *
1$
#340
0$
#350
b10 *
1$
#360
0$
#370
b11 *
1$
#380
0$
#390
b100 *
1$
#400
0$
#410
1"
1!
1'
b0 *
1$
#420
0$
#430
0"
0!
0'
b1 *
1,
1$
#440
0$
#450
b10 *
1$
#460
0$
#470
b11 *
1$
#480
0$
#490
b100 *
1$
#500
0$
#510
1'
b0 *
1$
#520
0$
#530
0'
b1 *
1$
#540
0$
#550
b10 *
1$
#560
0$
#570
b11 *
1$
#580
0$
#590
b100 *
1$
#600
0$
#610
1'
b0 *
1$
#620
0$
#630
0'
b1 *
1$
#640
0$
#650
b10 *
1$
#660
0$
#670
b11 *
1$
#680
0$
#690
b100 *
1$
#700
0$
#710
1'
b0 *
1$
#720
0$
#730
0'
b1 *
1$
#740
0$
#750
b10 *
1$
#760
0$
#770
b11 *
1$
#780
0$
#790
b100 *
1$
#800
0$
#810
1'
b0 *
1$
#820
0$
#830
0'
b1 *
1$
#840
0$
#850
b10 *
1$
#860
0$
#870
b11 *
1$
#880
0$
#890
b100 *
1$
#900
0$
#910
1'
b0 *
1$
#920
0$
#930
0'
b1 *
1$
#940
0$
#950
b10 *
1$
#960
0$
#970
b11 *
1$
#980
0$
#990
b100 *
1$
#1000
0$
#1010
1'
b0 *
1$
#1020
0$
#1030
0'
b1 *
1$
#1040
0$
#1050
b10 *
1$
#1060
0$
#1070
b11 *
1$
#1080
0$
#1090
b100 *
1$
#1100
0$
#1110
1'
b0 *
1$
#1120
0$
#1130
0'
b1 *
1$
#1140
0$
#1150
b10 *
1$
#1160
0$
#1170
b11 *
1$
#1171
0#
#1180
0$
#1181
1#
#1190
b100 *
1$
#1200
0$
#1201
0#
#1210
0&
1'
b0 *
0)
1$
#1211
1#
#1220
0$
#1230
1)
0(
0'
1$
#1240
0$
#1241
0#
#1250
1(
0)
1$
#1251
1#
#1260
0$
#1270
1)
0(
1$
#1280
0$
#1290
1&
1(
1$
#1291
0#
